{"failedCount":0,"prefixedPath":"classpath:in\/reqres\/users\/users-get.feature","packageQualifiedName":"in.reqres.users.users-get","loopIndex":-1,"relativePath":"in\/reqres\/users\/users-get.feature","scenarioResults":[{"sectionIndex":0,"stepResults":[{"result":{"nanos":291687,"startTime":1751645289293,"endTime":1751645289293,"millis":0.291687,"status":"passed"},"step":{"background":true,"line":4,"prefix":"*","index":0,"text":"url baseUrl"},"stepLog":"16:08:09.285 karate.env system property was: null \n"},{"result":{"nanos":133550,"startTime":1751645289293,"endTime":1751645289293,"millis":0.13355,"status":"passed"},"step":{"background":true,"line":5,"prefix":"*","index":1,"text":"configure headers = { 'x-api-key': 'reqres-free-v1' }"}},{"result":{"nanos":256191,"startTime":1751645289294,"endTime":1751645289294,"millis":0.256191,"status":"passed"},"step":{"line":9,"prefix":"Given","index":0,"text":"path '\/api\/users?page=2'"}},{"result":{"nanos":5361,"startTime":1751645289294,"endTime":1751645289294,"millis":0.005361,"status":"passed"},"step":{"line":10,"prefix":"And","index":1,"text":"retry until responseStatus == 200"}},{"result":{"nanos":89637967,"startTime":1751645289294,"endTime":1751645289384,"millis":89.637967,"status":"passed"},"step":{"line":11,"prefix":"When","index":2,"text":"method get"},"stepLog":"16:08:09.295 request:\n1 > GET https:\/\/reqres.in\/api\/users%3Fpage=2\n1 > x-api-key: reqres-free-v1\n1 > Host: reqres.in\n1 > Connection: Keep-Alive\n1 > User-Agent: Apache-HttpClient\/4.5.14 (Java\/17.0.15)\n1 > Accept-Encoding: gzip,deflate\n\n\n16:08:09.381 response time in milliseconds: 85\n1 < 200\n1 < Date: Fri, 04 Jul 2025 16:08:09 GMT\n1 < Content-Type: application\/json; charset=utf-8\n1 < Transfer-Encoding: chunked\n1 < Connection: keep-alive\n1 < Report-To: {\"group\":\"heroku-nel\",\"max_age\":3600,\"endpoints\":[{\"url\":\"https:\/\/nel.heroku.com\/reports?ts=1751645288&sid=c4c9725f-1ab0-44d8-820f-430df2718e11&s=ee04dVVwmYKQCsPw8URDZzeyTE8a3TahLg%2BR7BhV8wA%3D\"}]}\n1 < Reporting-Endpoints: heroku-nel=https:\/\/nel.heroku.com\/reports?ts=1751645288&sid=c4c9725f-1ab0-44d8-820f-430df2718e11&s=ee04dVVwmYKQCsPw8URDZzeyTE8a3TahLg%2BR7BhV8wA%3D\n1 < Nel: {\"report_to\":\"heroku-nel\",\"max_age\":3600,\"success_fraction\":0.005,\"failure_fraction\":0.05,\"response_headers\":[\"Via\"]}\n1 < X-Powered-By: Express\n1 < Access-Control-Allow-Origin: *\n1 < Ratelimit-Policy: 100;w=60\n1 < Ratelimit-Limit: 100\n1 < Ratelimit-Remaining: 96\n1 < Ratelimit-Reset: 60\n1 < Etag: W\/\"2fb-zJ\/iiAzm4zf7SruyfEtNo0xEDoY\"\n1 < Via: 1.1 vegur\n1 < Cache-Control: max-age=14400\n1 < CF-Cache-Status: HIT\n1 < Age: 1\n1 < Vary: Accept-Encoding\n1 < Server: cloudflare\n1 < CF-RAY: 959fe1328cc997ca-LAX\n1 < server-timing: cfL4;desc=\"?proto=TCP&rtt=8506&min_rtt=8478&rtt_var=3200&sent=5&recv=7&lost=0&retrans=0&sent_bytes=3106&recv_bytes=780&delivery_rate=505307&cwnd=204&unsent_bytes=0&cid=5402b09e2392b5a2&ts=49&x=0\"\n{\"page\":1,\"per_page\":6,\"total\":12,\"total_pages\":2,\"data\":[{\"id\":1,\"name\":\"cerulean\",\"year\":2000,\"color\":\"#98B2D1\",\"pantone_value\":\"15-4020\"},{\"id\":2,\"name\":\"fuchsia rose\",\"year\":2001,\"color\":\"#C74375\",\"pantone_value\":\"17-2031\"},{\"id\":3,\"name\":\"true red\",\"year\":2002,\"color\":\"#BF1932\",\"pantone_value\":\"19-1664\"},{\"id\":4,\"name\":\"aqua sky\",\"year\":2003,\"color\":\"#7BC4C4\",\"pantone_value\":\"14-4811\"},{\"id\":5,\"name\":\"tigerlily\",\"year\":2004,\"color\":\"#E2583E\",\"pantone_value\":\"17-1456\"},{\"id\":6,\"name\":\"blue turquoise\",\"year\":2005,\"color\":\"#53B0AE\",\"pantone_value\":\"15-5217\"}],\"support\":{\"url\":\"https:\/\/contentcaddy.io?utm_source=reqres&utm_medium=json&utm_campaign=referral\",\"text\":\"Tired of writing endless social media content? Let Content Caddy generate it for you.\"}}\n\n"},{"result":{"nanos":7895,"startTime":1751645289384,"endTime":1751645289384,"millis":0.007895,"status":"passed"},"step":{"line":12,"prefix":"Then","index":3,"text":"status 200"}},{"result":{"nanos":7459139,"startTime":1751645289384,"endTime":1751645289391,"millis":7.459139,"status":"passed"},"step":{"line":13,"prefix":"And","index":4,"text":"match karate.response.header('Content-Type') contains 'application\/json'"}}],"line":8,"description":"","durationMillis":97.79179,"failed":false,"tags":["smoke"],"executorName":"pool-4-thread-2","name":"Get all users successfully","startTime":1751645289272,"refId":"[1:8]","endTime":1751645289391,"exampleIndex":-1},{"sectionIndex":1,"stepResults":[{"result":{"nanos":308108,"startTime":1751645289295,"endTime":1751645289295,"millis":0.308108,"status":"passed"},"step":{"background":true,"line":4,"prefix":"*","index":0,"text":"url baseUrl"},"stepLog":"16:08:09.286 karate.env system property was: null \n"},{"result":{"nanos":152366,"startTime":1751645289296,"endTime":1751645289296,"millis":0.152366,"status":"passed"},"step":{"background":true,"line":5,"prefix":"*","index":1,"text":"configure headers = { 'x-api-key': 'reqres-free-v1' }"}},{"result":{"nanos":526078,"startTime":1751645289296,"endTime":1751645289297,"millis":0.526078,"status":"passed"},"step":{"line":17,"prefix":"*","index":0,"text":"def userId = 1"}},{"result":{"nanos":12958241,"startTime":1751645289296,"endTime":1751645289309,"millis":12.958241,"status":"passed"},"step":{"line":18,"prefix":"Given","index":1,"text":"path '\/api\/users', userId"}},{"result":{"nanos":167212784,"startTime":1751645289309,"endTime":1751645289476,"millis":167.212784,"status":"passed"},"step":{"line":19,"prefix":"When","index":2,"text":"method get"},"stepLog":"16:08:09.316 request:\n1 > GET https:\/\/reqres.in\/api\/users\/1\n1 > x-api-key: reqres-free-v1\n1 > Host: reqres.in\n1 > Connection: Keep-Alive\n1 > User-Agent: Apache-HttpClient\/4.5.14 (Java\/17.0.15)\n1 > Accept-Encoding: gzip,deflate\n\n\n16:08:09.475 response time in milliseconds: 157\n1 < 200\n1 < Date: Fri, 04 Jul 2025 16:08:09 GMT\n1 < Content-Type: application\/json; charset=utf-8\n1 < Transfer-Encoding: chunked\n1 < Connection: keep-alive\n1 < Report-To: {\"group\":\"heroku-nel\",\"max_age\":3600,\"endpoints\":[{\"url\":\"https:\/\/nel.heroku.com\/reports?ts=1751641398&sid=c4c9725f-1ab0-44d8-820f-430df2718e11&s=dOPjciO3f2VbdOoHfAlJLiraqsXohJmGkGqyP%2B6SFPY%3D\"}]}\n1 < Reporting-Endpoints: heroku-nel=https:\/\/nel.heroku.com\/reports?ts=1751641398&sid=c4c9725f-1ab0-44d8-820f-430df2718e11&s=dOPjciO3f2VbdOoHfAlJLiraqsXohJmGkGqyP%2B6SFPY%3D\n1 < Nel: {\"report_to\":\"heroku-nel\",\"max_age\":3600,\"success_fraction\":0.005,\"failure_fraction\":0.05,\"response_headers\":[\"Via\"]}\n1 < X-Powered-By: Express\n1 < Access-Control-Allow-Origin: *\n1 < Ratelimit-Policy: 100;w=60\n1 < Ratelimit-Limit: 100\n1 < Ratelimit-Remaining: 98\n1 < Ratelimit-Reset: 60\n1 < Etag: W\/\"152-u+PREu\/p8Opn\/uEvEGESR7Dst7c\"\n1 < Via: 1.1 vegur\n1 < Cache-Control: max-age=14400\n1 < CF-Cache-Status: HIT\n1 < Age: 3891\n1 < Vary: Accept-Encoding\n1 < Server: cloudflare\n1 < CF-RAY: 959fe1329d002ec1-LAX\n1 < server-timing: cfL4;desc=\"?proto=TCP&rtt=8536&min_rtt=8483&rtt_var=3219&sent=6&recv=7&lost=0&retrans=0&sent_bytes=3107&recv_bytes=773&delivery_rate=505010&cwnd=252&unsent_bytes=0&cid=38794f01376398ec&ts=131&x=0\"\n{\"data\":{\"id\":1,\"email\":\"george.bluth@reqres.in\",\"first_name\":\"George\",\"last_name\":\"Bluth\",\"avatar\":\"https:\/\/reqres.in\/img\/faces\/1-image.jpg\"},\"support\":{\"url\":\"https:\/\/contentcaddy.io?utm_source=reqres&utm_medium=json&utm_campaign=referral\",\"text\":\"Tired of writing endless social media content? Let Content Caddy generate it for you.\"}}\n\n"},{"result":{"nanos":35818,"startTime":1751645289477,"endTime":1751645289477,"millis":0.035818,"status":"passed"},"step":{"line":20,"prefix":"Then","index":3,"text":"status 200"}},{"result":{"nanos":4169385,"startTime":1751645289477,"endTime":1751645289481,"millis":4.169385,"status":"passed"},"step":{"line":21,"prefix":"And","index":4,"text":"match response.data.id == userId"}}],"executorName":"pool-4-thread-3","line":16,"name":"Get a user by id successfully","description":"","durationMillis":185.36278,"startTime":1751645289274,"failed":false,"refId":"[2:16]","endTime":1751645289481,"exampleIndex":-1}],"callDepth":0,"name":"Testing users API - Get requests","description":"","resultDate":"2025-07-04 04:08:09 PM","durationMillis":283.15457,"passedCount":2}